{
  "comet": {
    "name": "Comet",
    "desc": "A mass of ice, rock and dust drifting in space that often has a tail, which grows as it gets closer to the Sun. The tail is made up of dust and various materials ionized by solar energy.",
    "image": "https://www.freeiconspng.com/thumbs/comet/comet-transparent-background-image-11.png"
  }, 
  "asteroid": {
    "name": "Asteroid",
    "desc": "A body made up of rocks, both metallic and non-metallic, that orbits the Sun, usually found in the asteroid belt between Mars and Jupiter. They range in size from a few centimeters to nearly a thousand kilometres across.",
    "image": "https://pngimg.com/d/asteroid_PNG7.png"
  },
  "meteoroid": {
    "name": "Meteoroid",
    "desc": "A solid body, often an asteroid fragment, typically larger than a grain of sand and smaller than one metre across, flying through interplanetary space.",
    "image": "https://w7.pngwing.com/pngs/335/511/png-transparent-meteoroid-meteorite-meteor-shower-meteoro-atmosphere-photography-rock.png"
  },
  "meteor": {
    "name": "Meteor",
    "desc": "A meteoroid that enters Earth's atmosphere becomes a meteor. It burns up as it travels through the atmosphere, producing a streak of light. A meteor can appear as a lone object (shooting star) or in clusters (meteor shower)",
    "image": "https://w7.pngwing.com/pngs/752/245/png-transparent-meteor-illustration-light-bolide-meteor-light-color-sticker-desktop-wallpaper-thumbnail.png"
  },
  "fireball": {
    "name": "Fireball",
    "desc": "A meteor that burns as it travels through our atmosphere, leaving behind a very bright streak of light. Sometimes, it is even visible during the day. This rather rare phenomenon is the result of a meteorid that is larger or denser than usual.",
    "image": "https://e7.pngegg.com/pngimages/673/827/png-clipart-meteor-meteor-fireball.png"
  },
  "meteorite": {
    "name": "Meteorite",
    "desc": "When a meteoroid does not completely burn up as it travels through the atmosphere, the fragment found on the ground is called a meteorite.",
    "image": "https://imagedelivery.net/9sCnq8t6WEGNay0RAQNdvQ/clcnkc0z80dfmp6qpbevqgj27_2/public"
  }
}